[
  {
    "id": "00001",
    "image": "users/vitaly.jpeg",
    "name": "Виталий Когогин",
    "role": "Frontend Developer"
  },
  {
    "id": "00002",
    "image": "users/artem.jpg",
    "name": "Артём Глущенко",
    "role": "Backend Developer"
  },
  {
    "id": "00003",
    "image": "users/vitovt.jpg",
    "name": "Витовт Кублицкий",
    "role": "Backend Developer"
  },
  {
    "id": "00004",
    "image": "users/nastya.jpg",
    "name": "Настя Корнилова",
    "role": "Intern"
  }
]
